<?xml version="1.0" encoding="UTF-8" standalone="no"?>
<svg xmlns="http://www.w3.org/2000/svg" version="1.1" width="4" height="4">
  <circle id="x" cx="1" cy="1" r="1" fill='rgba(0, 0, 0, 0.25)'/>
  <circle id="y" cx="3" cy="3" r="1" fill='rgba(0, 0, 0, 0.25)'/>
</svg>
