<?xml version="1.0" standalone="no"?>
<!DOCTYPE svg PUBLIC "-//W3C//DTD SVG 20010904//EN"
 "http://www.w3.org/TR/2001/REC-SVG-20010904/DTD/svg10.dtd">
<svg version="1.0" xmlns="http://www.w3.org/2000/svg"
 width="700.000000pt" height="258.000000pt" viewBox="0 0 700.000000 258.000000"
 preserveAspectRatio="xMidYMid meet">
<metadata>
Created by potrace 1.12, written by Peter Selinger 2001-2015
</metadata>
<g transform="translate(0.000000,258.000000) scale(0.100000,-0.100000)"
fill="#000000" stroke="none">
<path d="M40 1290 l0 -1290 3330 0 3330 0 0 1225 0 1225 -460 0 -460 0 0 -223
c0 -203 -2 -227 -20 -263 -41 -81 1 -74 -460 -74 -395 0 -413 -1 -440 -20 -15
-11 -48 -29 -74 -39 -42 -18 -45 -22 -37 -44 7 -19 5 -27 -10 -38 -11 -7 -27
-14 -37 -14 -11 0 -16 -7 -15 -20 4 -44 11 -60 26 -59 48 2 57 5 57 19 0 9 9
15 24 15 23 0 24 -2 16 -31 -5 -16 -6 -37 -3 -46 4 -11 2 -14 -5 -9 -7 4 -12
13 -12 21 0 21 -17 27 -39 14 -15 -10 -18 -20 -14 -45 5 -29 2 -34 -20 -39
-29 -8 -47 0 -47 20 0 21 -22 23 -61 6 -31 -14 -35 -19 -28 -39 5 -13 17 -22
30 -22 11 0 34 -8 50 -17 22 -13 34 -15 47 -7 12 8 27 6 57 -7 22 -10 52 -19
68 -19 15 0 27 -6 27 -12 0 -10 2 -10 8 -1 6 9 97 13 358 15 l350 3 -18 -30
c-17 -29 -35 -43 -125 -99 -41 -25 -43 -29 -43 -75 0 -45 -3 -50 -49 -89 -41
-34 -57 -42 -91 -42 -42 0 -98 -24 -201 -86 -49 -29 -66 -34 -122 -34 -44 0
-80 7 -112 21 -34 15 -76 22 -159 26 -96 5 -118 3 -156 -13 -25 -11 -51 -19
-57 -18 -7 1 -25 2 -40 4 -16 1 -22 4 -16 7 7 2 13 11 13 19 0 8 5 14 11 14 6
0 9 8 7 18 -4 15 -1 18 18 14 15 -3 24 0 24 8 0 8 9 11 25 8 20 -4 25 -1 25
16 1 35 45 77 77 74 19 -2 27 1 25 10 -4 19 27 72 42 72 7 0 19 7 26 15 7 9
15 13 18 10 3 -3 11 0 19 6 9 9 13 8 13 0 0 -17 25 -13 43 7 16 17 15 18 -18
14 -36 -4 -48 11 -18 22 10 4 13 10 7 16 -6 6 -36 -1 -79 -17 -56 -20 -93 -26
-182 -30 l-113 -4 0 25 c0 14 6 29 13 33 17 10 29 53 15 53 -5 0 -19 10 -30
23 l-20 22 16 -24 c14 -23 13 -26 -22 -61 -84 -85 -134 -122 -158 -116 -18 5
-23 1 -26 -16 -3 -21 -9 -23 -80 -26 -75 -3 -78 -4 -78 -27 0 -22 -3 -24 -32
-20 -18 3 -26 2 -18 -1 34 -15 50 -44 50 -89 0 -42 -6 -50 -33 -46 -4 1 -24
-10 -45 -22 -24 -16 -44 -22 -57 -17 -11 4 -35 3 -54 -2 -38 -11 -234 -126
-268 -157 -11 -11 -24 -17 -27 -14 -3 4 3 12 14 20 17 12 20 26 20 103 l0 89
38 7 c63 11 106 33 119 59 6 14 9 25 7 25 -3 0 -31 -14 -64 -30 -61 -31 -75
-35 -67 -22 3 4 -35 7 -83 7 -48 0 -86 -3 -83 -7 5 -10 -34 5 -87 32 -45 23
-51 15 -16 -23 16 -18 42 -29 85 -38 l61 -12 0 -83 c0 -68 3 -85 18 -93 25
-15 7 -13 -31 3 -18 7 -71 17 -119 20 -91 8 -159 -3 -191 -32 -16 -14 -20 -13
-55 21 -21 20 -43 37 -49 37 -6 0 -41 14 -77 31 l-66 31 0 51 c-1 29 -7 63
-15 77 -8 14 -14 28 -15 33 0 4 30 8 68 9 l67 2 -75 5 -75 6 -1 43 c-3 61 -9
72 -45 72 -25 0 -45 14 -105 72 -41 39 -74 77 -74 84 0 7 8 18 18 23 9 6 12
11 5 11 -19 0 -60 -45 -55 -61 3 -8 10 -21 17 -29 7 -8 16 -25 20 -38 6 -22 6
-22 -94 -19 -56 2 -101 0 -101 -4 0 -3 -21 4 -47 17 -27 13 -55 24 -63 24 -8
0 -27 7 -42 14 -24 13 -28 13 -28 1 0 -8 5 -17 10 -20 19 -12 10 -24 -22 -27
l-33 -3 24 -14 c16 -9 26 -10 30 -2 8 12 51 3 51 -10 0 -5 6 -9 13 -9 8 0 22
-9 32 -20 10 -11 15 -20 10 -20 -4 0 -2 -7 5 -15 6 -8 8 -19 4 -26 -5 -8 2
-10 25 -7 26 4 35 -1 56 -28 14 -18 25 -40 25 -48 0 -10 9 -16 24 -16 14 0 28
-5 31 -11 4 -6 13 -8 21 -5 9 3 14 -2 14 -14 0 -11 3 -20 8 -20 4 0 6 -33 4
-74 -2 -43 1 -84 8 -98 12 -24 2 -14 -89 92 -24 29 -60 59 -78 68 -31 15 -41
15 -127 0 -51 -9 -114 -26 -139 -37 -25 -12 -62 -21 -82 -21 -61 0 -177 40
-210 72 -39 38 -65 51 -148 73 -88 24 -120 57 -116 123 4 54 -13 68 -112 101
-57 19 -69 27 -88 61 -16 29 -21 52 -18 82 l4 43 1 -47 2 -48 361 0 c333 0
363 -1 375 -17 13 -17 14 -17 8 0 -5 14 0 17 23 17 16 0 46 9 67 19 29 15 42
17 55 9 13 -8 27 -5 59 11 24 12 47 19 52 16 6 -4 14 4 19 17 8 20 4 25 -27
42 l-36 18 -22 -27 c-18 -23 -27 -26 -49 -21 -24 6 -27 10 -21 38 8 38 -18 75
-41 57 -7 -6 -13 -20 -13 -30 0 -11 -3 -19 -7 -19 -5 0 -9 22 -10 49 -2 43 0
50 17 48 10 -1 21 -9 23 -19 3 -10 15 -19 26 -19 12 -1 26 -2 32 -3 6 -1 17
16 24 37 12 35 12 37 -9 37 -29 1 -66 34 -66 60 0 14 4 19 13 14 8 -5 8 -2 -2
9 -7 9 -19 17 -27 17 -7 0 -39 16 -71 35 l-58 35 -470 0 c-434 -1 -471 1 -482
17 -10 13 -13 95 -13 340 l0 323 -540 0 -540 0 0 -1290z"/>
<path d="M2602 2510 c-2 -65 4 -92 43 -205 25 -71 50 -134 56 -140 8 -7 9 -4
2 10 -39 79 -88 248 -93 325 l-7 85 -1 -75z"/>
<path d="M3435 2515 c-27 -25 -72 -56 -99 -69 -27 -13 -44 -26 -39 -29 15 -10
125 47 157 82 17 17 34 31 39 31 4 0 29 -18 55 -39 56 -46 128 -84 143 -75 6
4 -10 17 -36 30 -25 13 -71 44 -102 69 -30 25 -58 45 -61 45 -4 -1 -29 -21
-57 -45z"/>
<path d="M3454 2479 c-33 -34 -124 -80 -199 -99 -27 -7 -117 -16 -199 -19
l-149 -6 -23 -67 -22 -67 42 -25 c84 -49 138 -133 152 -233 6 -50 5 -53 -15
-53 -20 0 -21 -4 -21 -131 0 -83 6 -156 16 -202 20 -88 75 -211 98 -220 10 -4
16 -4 14 0 -31 62 -60 133 -72 181 -20 74 -39 253 -29 263 5 5 9 -24 11 -64
12 -268 132 -476 333 -576 45 -23 92 -41 105 -41 65 0 211 86 283 167 82 92
137 218 161 368 l9 60 -5 -67 c-5 -76 -34 -179 -70 -250 -19 -38 -21 -46 -8
-41 24 9 81 135 99 217 28 132 28 336 -1 336 -7 0 -15 -6 -18 -12 -12 -26 6
98 20 143 18 57 72 121 130 155 24 14 44 27 44 27 0 1 -11 31 -24 67 l-24 65
-99 -3 c-114 -5 -260 17 -336 50 -29 13 -75 42 -104 65 -29 24 -56 43 -61 43
-5 0 -21 -14 -38 -31z m74 -85 c4 -25 -20 -47 -42 -38 -32 12 -10 68 24 62 8
-2 16 -13 18 -24z m-550 -110 c4 -29 -23 -51 -43 -34 -18 15 -19 32 -3 48 18
18 42 10 46 -14z m1100 2 c5 -26 -26 -50 -45 -35 -16 14 -17 31 -1 47 17 17
42 11 46 -12z m-457 -210 c103 -19 164 -47 189 -88 24 -40 25 -66 3 -97 -12
-18 -13 -22 -2 -17 8 4 0 -6 -17 -22 -17 -16 -53 -37 -80 -47 -27 -10 -50 -20
-52 -21 -6 -4 29 -67 56 -102 20 -26 21 -31 7 -26 -29 11 -8 -14 25 -31 16 -8
46 -19 67 -24 l38 -9 -45 -1 c-97 -2 -194 74 -221 173 l-11 41 -14 -54 c-19
-73 -42 -118 -72 -141 -14 -11 -22 -24 -18 -28 4 -4 37 -7 72 -7 68 0 80 -8
39 -27 -17 -8 -60 -8 -157 0 l-133 10 145 -3 c130 -3 137 -2 70 7 -41 5 -77
11 -79 14 -3 3 6 15 20 27 14 12 20 19 14 15 -7 -4 -14 -6 -17 -3 -3 3 -13 -4
-23 -15 -15 -17 -29 -20 -89 -18 l-71 2 70 5 70 6 33 49 c17 26 43 86 57 131
22 70 32 89 70 124 64 59 83 54 46 -11 -10 -18 -22 -43 -25 -55 -6 -20 -4 -21
36 -16 146 19 185 117 71 176 -36 19 -201 43 -260 38 -7 -1 -33 -43 -59 -95
-38 -77 -47 -107 -51 -163 -4 -45 -1 -78 7 -93 11 -20 17 -22 62 -16 55 8 58
-3 6 -30 -38 -20 -110 -23 -131 -5 -43 35 -30 140 32 268 43 87 98 167 86 123
l-7 -25 28 26 29 27 104 -9 c64 -6 120 -17 148 -29 56 -25 112 -28 93 -5 -28
34 -171 67 -340 78 -25 2 -11 4 30 5 41 1 109 -5 151 -12z m-478 -53 c-6 -16
-5 -17 13 -3 15 11 16 11 7 0 -15 -17 -17 -66 -3 -75 13 -8 13 -25 0 -25 -12
0 -40 53 -40 78 0 10 5 23 12 30 16 16 19 15 11 -5z m814 -275 c-2 -18 -4 -4
-4 32 0 36 2 50 4 33 2 -18 2 -48 0 -65z m-670 -204 c-3 -3 -12 -4 -19 -1 -8
3 -5 6 6 6 11 1 17 -2 13 -5z m238 -344 c0 -16 -6 -26 -19 -28 -25 -5 -39 12
-31 38 10 31 50 24 50 -10z"/>
<path d="M3316 1860 c-9 -22 -16 -46 -16 -53 1 -6 10 10 20 37 11 28 18 51 16
53 -2 2 -11 -14 -20 -37z"/>
<path d="M3291 1774 c0 -11 3 -14 6 -6 3 7 2 16 -1 19 -3 4 -6 -2 -5 -13z"/>
<path d="M4383 2418 c-59 -166 -85 -234 -95 -245 -7 -9 -7 -13 0 -13 6 0 18
21 28 48 9 26 32 87 51 135 19 48 33 92 31 98 -2 5 -8 -5 -15 -23z"/>
<path d="M4130 2303 c0 -5 5 -26 11 -47 10 -35 9 -42 -7 -53 -16 -12 -15 -13
13 -13 18 0 34 4 37 9 7 11 -34 111 -45 111 -5 0 -9 -3 -9 -7z"/>
<path d="M2835 2265 c-25 -62 -24 -70 15 -73 31 -3 33 -2 17 10 -14 11 -15 19
-7 48 12 43 12 50 0 50 -5 0 -16 -16 -25 -35z"/>
<path d="M2702 2130 c0 -14 2 -19 5 -12 2 6 2 18 0 25 -3 6 -5 1 -5 -13z"/>
<path d="M2848 2091 c-9 -11 -14 -22 -11 -25 4 -3 13 3 21 15 18 26 11 34 -10
10z"/>
<path d="M4142 2085 c6 -13 16 -21 21 -18 8 5 7 8 -1 11 -7 2 -12 10 -12 18 0
8 -4 14 -10 14 -6 0 -5 -10 2 -25z"/>
<path d="M2881 2054 c0 -11 3 -14 6 -6 3 7 2 16 -1 19 -3 4 -6 -2 -5 -13z"/>
<path d="M2822 2004 c-11 -12 -17 -12 -28 -3 -9 8 -14 8 -14 1 0 -6 8 -15 18
-21 15 -9 14 -11 -8 -19 -22 -9 -23 -11 -7 -17 26 -11 67 20 67 50 0 28 -9 31
-28 9z"/>
<path d="M4150 1995 c0 -30 41 -61 67 -50 16 6 15 8 -7 17 -22 8 -23 10 -7 19
9 6 17 15 17 21 0 7 -4 7 -14 -1 -10 -9 -16 -8 -26 4 -18 22 -30 18 -30 -10z"/>
<path d="M2981 1965 c-1 -22 -4 -51 -6 -65 -5 -22 -4 -22 6 3 7 18 16 26 25
23 16 -6 18 26 4 59 l-9 20 -1 -20 -1 -20 -9 20 c-7 16 -9 12 -9 -20z"/>
<path d="M3991 1990 c-1 -8 -4 -25 -7 -37 -5 -17 -2 -23 9 -23 8 0 20 -12 26
-27 10 -26 11 -26 6 -3 -2 14 -5 43 -6 65 0 30 -2 35 -8 20 l-8 -20 -5 20 c-4
12 -6 14 -7 5z"/>
<path d="M2870 1869 c-14 -14 -34 -30 -45 -36 -19 -11 -19 -13 -2 -120 21
-133 21 -137 1 -129 -14 5 -15 -1 -9 -56 4 -34 14 -73 22 -85 8 -12 12 -31 8
-43 -6 -18 -2 -20 46 -20 l52 0 -7 31 c-3 17 -7 50 -7 73 -1 22 -3 33 -6 23
-7 -29 -25 -14 -41 34 -8 24 -19 54 -25 66 -16 35 -2 172 22 227 26 60 24 69
-9 35z"/>
<path d="M4100 1895 c0 -4 11 -36 24 -69 23 -57 31 -118 28 -194 -1 -18 -6
-31 -11 -28 -5 3 -11 -12 -15 -34 -3 -22 -12 -51 -18 -66 l-12 -27 -13 29
c-12 28 -12 26 -13 -28 0 -31 -3 -63 -6 -72 -5 -13 2 -16 40 -16 41 0 46 3 46
22 0 12 6 29 14 37 7 9 16 44 19 78 6 55 5 61 -10 56 -18 -7 -17 -1 11 170 8
51 9 77 2 77 -6 0 -27 17 -48 37 -21 20 -38 33 -38 28z"/>
<path d="M2302 1862 c-7 -5 -10 -16 -6 -25 7 -19 19 -14 34 14 12 21 -3 26
-28 11z"/>
<path d="M2563 1863 l-93 -4 0 -35 c0 -34 -2 -37 -70 -67 -52 -23 -70 -36 -70
-50 0 -18 6 -19 65 -15 36 2 65 1 65 -2 0 -7 96 4 121 15 9 3 22 18 28 32 10
22 9 29 -9 48 -24 26 -17 59 11 52 10 -3 25 4 35 14 9 10 15 18 13 17 -2 -1
-46 -4 -96 -5z"/>
<path d="M4350 1848 c0 -12 16 -17 38 -11 32 8 27 20 -8 19 -16 -1 -30 -4 -30
-8z"/>
<path d="M4440 1851 c-18 -5 -26 -15 -28 -34 -2 -15 -11 -33 -21 -39 -26 -16
-15 -56 20 -74 29 -15 117 -25 121 -13 2 3 29 3 61 -1 63 -7 67 -5 67 21 0 12
-10 21 -27 25 -76 18 -125 67 -109 109 4 12 -2 15 -27 14 -18 -1 -43 -4 -57
-8z"/>
<path d="M4660 1851 c0 -13 26 -32 33 -24 14 13 6 33 -13 33 -11 0 -20 -4 -20
-9z"/>
<path d="M2637 1791 c-4 -15 2 -22 26 -30 38 -14 37 -14 37 7 0 39 -53 59 -63
23z"/>
<path d="M4307 1792 c-32 -36 -20 -50 27 -33 18 8 23 15 19 30 -7 26 -25 27
-46 3z"/>
<path d="M2348 1653 c-10 -2 -18 -11 -18 -19 0 -20 13 -17 28 6 7 11 11 19 10
19 -2 -1 -11 -3 -20 -6z"/>
<path d="M4623 1649 c9 -5 17 -17 17 -26 0 -14 2 -15 13 -4 10 10 8 15 -7 27
-11 8 -25 14 -30 14 -6 0 -3 -5 7 -11z"/>
<path d="M2966 1625 c-9 -26 -7 -32 5 -12 6 10 9 21 6 23 -2 3 -7 -2 -11 -11z"/>
<path d="M4021 1635 c0 -5 6 -21 14 -35 8 -14 14 -20 14 -15 0 6 -6 21 -14 35
-8 14 -14 21 -14 15z"/>
<path d="M4540 1624 c0 -6 7 -19 16 -30 14 -18 14 -18 3 6 -14 31 -19 36 -19
24z"/>
<path d="M2435 1609 c-4 -6 -5 -12 -2 -15 2 -3 7 2 10 11 7 17 1 20 -8 4z"/>
<path d="M4035 1455 c0 -42 3 -58 9 -48 12 22 13 90 1 102 -7 7 -10 -12 -10
-54z"/>
<path d="M3882 1328 c-5 -7 -13 -24 -17 -37 -4 -13 -25 -44 -47 -67 -29 -32
-36 -44 -24 -44 27 0 116 49 150 82 l31 31 -38 -23 c-21 -12 -40 -21 -42 -19
-7 8 -9 65 -2 77 10 16 2 16 -11 0z"/>
<path d="M3104 1315 c-4 -9 -4 -27 -2 -40 6 -31 2 -31 -47 1 l-40 26 36 -35
c37 -37 127 -87 155 -87 12 0 6 11 -21 41 -20 23 -43 56 -51 75 -16 38 -22 41
-30 19z"/>
<path d="M3010 1195 c-20 -24 -4 -29 19 -6 14 14 17 21 7 21 -7 0 -19 -7 -26
-15z"/>
<path d="M3136 1124 c-23 -22 -20 -25 12 -8 17 9 42 12 67 9 29 -4 35 -2 20 4
-32 15 -82 12 -99 -5z"/>
<path d="M3770 1129 c-11 -8 -7 -9 17 -4 21 4 44 1 63 -8 32 -17 43 -4 11 13
-25 13 -72 13 -91 -1z"/>
</g>
</svg>
